%YAML 1.1
%TAG !u! tag:unity3d.com,2011:
--- !u!13 &1
InputManager:
  m_ObjectHideFlags: 0
  serializedVersion: 2
  m_Axes:
  - serializedVersion: 3
    m_Name: L_XAxis_1
    descriptiveName: 
    descriptiveNegativeName: 
    negativeButton: 
    positiveButton: 
    altNegativeButton: 
    altPositiveButton: 
    gravity: 0
    dead: .300000012
    sensitivity: 1
    snap: 0
    invert: 0
    type: 2
    axis: 0
    joyNum: 1
  - serializedVersion: 3
    m_Name: L_XAxis_2
    descriptiveName: 
    descriptiveNegativeName: 
    negativeButton: 
    positiveButton: 
    altNegativeButton: 
    altPositiveButton: 
    gravity: 0
    dead: .300000012
    sensitivity: 1
    snap: 0
    invert: 0
    type: 2
    axis: 0
    joyNum: 2
  - serializedVersion: 3
    m_Name: L_XAxis_3
    descriptiveName: 
    descriptiveNegativeName: 
    negativeButton: 
    positiveButton: 
    altNegativeButton: 
    altPositiveButton: 
    gravity: 0
    dead: .300000012
    sensitivity: 1
    snap: 0
    invert: 0
    type: 2
    axis: 0
    joyNum: 3
  - serializedVersion: 3
    m_Name: L_XAxis_4
    descriptiveName: 
    descriptiveNegativeName: 
    negativeButton: 
    positiveButton: 
    altNegativeButton: 
    altPositiveButton: 
    gravity: 0
    dead: .300000012
    sensitivity: 1
    snap: 0
    invert: 0
    type: 2
    axis: 0
    joyNum: 4
  - serializedVersion: 3
    m_Name: L_YAxis_1
    descriptiveName: 
    descriptiveNegativeName: 
    negativeButton: 
    positiveButton: 
    altNegativeButton: 
    altPositiveButton: 
    gravity: 0
    dead: .300000012
    sensitivity: 1
    snap: 0
    invert: 0
    type: 2
    axis: 1
    joyNum: 1
  - serializedVersion: 3
    m_Name: L_YAxis_2
    descriptiveName: 
    descriptiveNegativeName: 
    negativeButton: 
    positiveButton: 
    altNegativeButton: 
    altPositiveButton: 
    gravity: 0
    dead: .300000012
    sensitivity: 1
    snap: 0
    invert: 0
    type: 2
    axis: 1
    joyNum: 2
  - serializedVersion: 3
    m_Name: L_YAxis_3
    descriptiveName: 
    descriptiveNegativeName: 
    negativeButton: 
    positiveButton: 
    altNegativeButton: 
    altPositiveButton: 
    gravity: 0
    dead: .300000012
    sensitivity: 1
    snap: 0
    invert: 0
    type: 2
    axis: 1
    joyNum: 3
  - serializedVersion: 3
    m_Name: L_YAxis_4
    descriptiveName: 
    descriptiveNegativeName: 
    negativeButton: 
    positiveButton: 
    altNegativeButton: 
    altPositiveButton: 
    gravity: 0
    dead: .300000012
    sensitivity: 1
    snap: 0
    invert: 0
    type: 2
    axis: 1
    joyNum: 4
  - serializedVersion: 3
    m_Name: A_1
    descriptiveName: 
    descriptiveNegativeName: 
    negativeButton: 
    positiveButton: joystick 1 button 0
    altNegativeButton: 
    altPositiveButton: 
    gravity: 0
    dead: .300000012
    sensitivity: 1
    snap: 0
    invert: 0
    type: 0
    axis: 1
    joyNum: 1
  - serializedVersion: 3
    m_Name: A_2
    descriptiveName: 
    descriptiveNegativeName: 
    negativeButton: 
    positiveButton: joystick 2 button 0
    altNegativeButton: 
    altPositiveButton: 
    gravity: 0
    dead: .300000012
    sensitivity: 1
    snap: 0
    invert: 0
    type: 0
    axis: 1
    joyNum: 2
  - serializedVersion: 3
    m_Name: A_3
    descriptiveName: 
    descriptiveNegativeName: 
    negativeButton: 
    positiveButton: joystick 3 button 0
    altNegativeButton: 
    altPositiveButton: 
    gravity: 0
    dead: .300000012
    sensitivity: 1
    snap: 0
    invert: 0
    type: 0
    axis: 1
    joyNum: 3
  - serializedVersion: 3
    m_Name: A_4
    descriptiveName: 
    descriptiveNegativeName: 
    negativeButton: 
    positiveButton: joystick 4 button 0
    altNegativeButton: 
    altPositiveButton: 
    gravity: 0
    dead: .300000012
    sensitivity: 1
    snap: 0
    invert: 0
    type: 0
    axis: 1
    joyNum: 4
  - serializedVersion: 3
    m_Name: B_1
    descriptiveName: 
    descriptiveNegativeName: 
    negativeButton: 
    positiveButton: joystick 1 button 1
    altNegativeButton: 
    altPositiveButton: 
    gravity: 0
    dead: .300000012
    sensitivity: 1
    snap: 0
    invert: 0
    type: 0
    axis: 1
    joyNum: 1
  - serializedVersion: 3
    m_Name: B_2
    descriptiveName: 
    descriptiveNegativeName: 
    negativeButton: 
    positiveButton: joystick 2 button 1
    altNegativeButton: 
    altPositiveButton: 
    gravity: 0
    dead: .300000012
    sensitivity: 1
    snap: 0
    invert: 0
    type: 0
    axis: 1
    joyNum: 2
  - serializedVersion: 3
    m_Name: B_3
    descriptiveName: 
    descriptiveNegativeName: 
    negativeButton: 
    positiveButton: joystick 3 button 1
    altNegativeButton: 
    altPositiveButton: 
    gravity: 0
    dead: .300000012
    sensitivity: 1
    snap: 0
    invert: 0
    type: 0
    axis: 1
    joyNum: 3
  - serializedVersion: 3
    m_Name: B_4
    descriptiveName: 
    descriptiveNegativeName: 
    negativeButton: 
    positiveButton: joystick 4 button 1
    altNegativeButton: 
    altPositiveButton: 
    gravity: 0
    dead: .300000012
    sensitivity: 1
    snap: 0
    invert: 0
    type: 0
    axis: 1
    joyNum: 4
  - serializedVersion: 3
    m_Name: X_1
    descriptiveName: 
    descriptiveNegativeName: 
    negativeButton: 
    positiveButton: joystick 1 button 2
    altNegativeButton: 
    altPositiveButton: 
    gravity: 0
    dead: .300000012
    sensitivity: 1
    snap: 0
    invert: 0
    type: 0
    axis: 1
    joyNum: 1
  - serializedVersion: 3
    m_Name: X_2
    descriptiveName: 
    descriptiveNegativeName: 
    negativeButton: 
    positiveButton: joystick 2 button 2
    altNegativeButton: 
    altPositiveButton: 
    gravity: 0
    dead: .300000012
    sensitivity: 1
    snap: 0
    invert: 0
    type: 0
    axis: 1
    joyNum: 2
  - serializedVersion: 3
    m_Name: X_3
    descriptiveName: 
    descriptiveNegativeName: 
    negativeButton: 
    positiveButton: joystick 3 button 2
    altNegativeButton: 
    altPositiveButton: 
    gravity: 0
    dead: .300000012
    sensitivity: 1
    snap: 0
    invert: 0
    type: 0
    axis: 1
    joyNum: 3
  - serializedVersion: 3
    m_Name: X_4
    descriptiveName: 
    descriptiveNegativeName: 
    negativeButton: 
    positiveButton: joystick 4 button 2
    altNegativeButton: 
    altPositiveButton: 
    gravity: 0
    dead: .300000012
    sensitivity: 1
    snap: 0
    invert: 0
    type: 0
    axis: 1
    joyNum: 4
  - serializedVersion: 3
    m_Name: Y_1
    descriptiveName: 
    descriptiveNegativeName: 
    negativeButton: 
    positiveButton: joystick 1 button 3
    altNegativeButton: 
    altPositiveButton: 
    gravity: 0
    dead: .300000012
    sensitivity: 1
    snap: 0
    invert: 0
    type: 0
    axis: 1
    joyNum: 1
  - serializedVersion: 3
    m_Name: Y_2
    descriptiveName: 
    descriptiveNegativeName: 
    negativeButton: 
    positiveButton: joystick 2 button 3
    altNegativeButton: 
    altPositiveButton: 
    gravity: 0
    dead: .300000012
    sensitivity: 1
    snap: 0
    invert: 0
    type: 0
    axis: 1
    joyNum: 2
  - serializedVersion: 3
    m_Name: Y_3
    descriptiveName: 
    descriptiveNegativeName: 
    negativeButton: 
    positiveButton: joystick 3 button 3
    altNegativeButton: 
    altPositiveButton: 
    gravity: 0
    dead: .300000012
    sensitivity: 1
    snap: 0
    invert: 0
    type: 0
    axis: 1
    joyNum: 3
  - serializedVersion: 3
    m_Name: Y_4
    descriptiveName: 
    descriptiveNegativeName: 
    negativeButton: 
    positiveButton: joystick 4 button 3
    altNegativeButton: 
    altPositiveButton: 
    gravity: 0
    dead: .300000012
    sensitivity: 1
    snap: 0
    invert: 0
    type: 0
    axis: 1
    joyNum: 4
  - serializedVersion: 3
    m_Name: LB_1
    descriptiveName: 
    descriptiveNegativeName: 
    negativeButton: 
    positiveButton: joystick 1 button 4
    altNegativeButton: 
    altPositiveButton: 
    gravity: 0
    dead: .300000012
    sensitivity: 1
    snap: 0
    invert: 0
    type: 0
    axis: 1
    joyNum: 1
  - serializedVersion: 3
    m_Name: LB_2
    descriptiveName: 
    descriptiveNegativeName: 
    negativeButton: 
    positiveButton: joystick 2 button 4
    altNegativeButton: 
    altPositiveButton: 
    gravity: 0
    dead: .300000012
    sensitivity: 1
    snap: 0
    invert: 0
    type: 0
    axis: 1
    joyNum: 4
  - serializedVersion: 3
    m_Name: LB_3
    descriptiveName: 
    descriptiveNegativeName: 
    negativeButton: 
    positiveButton: joystick 3 button 4
    altNegativeButton: 
    altPositiveButton: 
    gravity: 0
    dead: .300000012
    sensitivity: 1
    snap: 0
    invert: 0
    type: 0
    axis: 1
    joyNum: 3
  - serializedVersion: 3
    m_Name: LB_4
    descriptiveName: 
    descriptiveNegativeName: 
    negativeButton: 
    positiveButton: joystick 4 button 4
    altNegativeButton: 
    altPositiveButton: 
    gravity: 0
    dead: .300000012
    sensitivity: 1
    snap: 0
    invert: 0
    type: 0
    axis: 1
    joyNum: 4
  - serializedVersion: 3
    m_Name: RB_1
    descriptiveName: 
    descriptiveNegativeName: 
    negativeButton: 
    positiveButton: joystick 1 button 5
    altNegativeButton: 
    altPositiveButton: 
    gravity: 0
    dead: .300000012
    sensitivity: 1
    snap: 0
    invert: 0
    type: 0
    axis: 1
    joyNum: 1
  - serializedVersion: 3
    m_Name: RB_2
    descriptiveName: 
    descriptiveNegativeName: 
    negativeButton: 
    positiveButton: joystick 2 button 5
    altNegativeButton: 
    altPositiveButton: 
    gravity: 0
    dead: .300000012
    sensitivity: 1
    snap: 0
    invert: 0
    type: 0
    axis: 1
    joyNum: 2
  - serializedVersion: 3
    m_Name: RB_3
    descriptiveName: 
    descriptiveNegativeName: 
    negativeButton: 
    positiveButton: joystick 3 button 5
    altNegativeButton: 
    altPositiveButton: 
    gravity: 0
    dead: .300000012
    sensitivity: 1
    snap: 0
    invert: 0
    type: 0
    axis: 1
    joyNum: 3
  - serializedVersion: 3
    m_Name: RB_4
    descriptiveName: 
    descriptiveNegativeName: 
    negativeButton: 
    positiveButton: joystick 4 button 5
    altNegativeButton: 
    altPositiveButton: 
    gravity: 0
    dead: .300000012
    sensitivity: 1
    snap: 0
    invert: 0
    type: 0
    axis: 1
    joyNum: 4
  - serializedVersion: 3
    m_Name: Back_1
    descriptiveName: 
    descriptiveNegativeName: 
    negativeButton: 
    positiveButton: joystick 1 button 6
    altNegativeButton: 
    altPositiveButton: 
    gravity: 0
    dead: .300000012
    sensitivity: 1
    snap: 0
    invert: 0
    type: 0
    axis: 1
    joyNum: 1
  - serializedVersion: 3
    m_Name: Back_2
    descriptiveName: 
    descriptiveNegativeName: 
    negativeButton: 
    positiveButton: joystick 2 button 6
    altNegativeButton: 
    altPositiveButton: 
    gravity: 0
    dead: .300000012
    sensitivity: 1
    snap: 0
    invert: 0
    type: 0
    axis: 1
    joyNum: 2
  - serializedVersion: 3
    m_Name: Back_3
    descriptiveName: 
    descriptiveNegativeName: 
    negativeButton: 
    positiveButton: joystick 3 button 6
    altNegativeButton: 
    altPositiveButton: 
    gravity: 0
    dead: .300000012
    sensitivity: 1
    snap: 0
    invert: 0
    type: 0
    axis: 1
    joyNum: 3
  - serializedVersion: 3
    m_Name: Back_4
    descriptiveName: 
    descriptiveNegativeName: 
    negativeButton: 
    positiveButton: joystick 4 button 6
    altNegativeButton: 
    altPositiveButton: 
    gravity: 0
    dead: .300000012
    sensitivity: 1
    snap: 0
    invert: 0
    type: 0
    axis: 1
    joyNum: 4
  - serializedVersion: 3
    m_Name: Start_1
    descriptiveName: 
    descriptiveNegativeName: 
    negativeButton: 
    positiveButton: joystick 1 button 7
    altNegativeButton: 
    altPositiveButton: 
    gravity: 0
    dead: .300000012
    sensitivity: 1
    snap: 0
    invert: 0
    type: 0
    axis: 1
    joyNum: 1
  - serializedVersion: 3
    m_Name: Start_2
    descriptiveName: 
    descriptiveNegativeName: 
    negativeButton: 
    positiveButton: joystick 2 button 7
    altNegativeButton: 
    altPositiveButton: 
    gravity: 0
    dead: .300000012
    sensitivity: 1
    snap: 0
    invert: 0
    type: 0
    axis: 1
    joyNum: 2
  - serializedVersion: 3
    m_Name: Start_3
    descriptiveName: 
    descriptiveNegativeName: 
    negativeButton: 
    positiveButton: joystick 3 button 7
    altNegativeButton: 
    altPositiveButton: 
    gravity: 0
    dead: .300000012
    sensitivity: 1
    snap: 0
    invert: 0
    type: 0
    axis: 1
    joyNum: 3
  - serializedVersion: 3
    m_Name: Start_4
    descriptiveName: 
    descriptiveNegativeName: 
    negativeButton: 
    positiveButton: joystick 4 button 7
    altNegativeButton: 
    altPositiveButton: 
    gravity: 0
    dead: .300000012
    sensitivity: 1
    snap: 0
    invert: 0
    type: 0
    axis: 1
    joyNum: 4
  - serializedVersion: 3
    m_Name: LS_1
    descriptiveName: 
    descriptiveNegativeName: 
    negativeButton: 
    positiveButton: joystick 1 button 8
    altNegativeButton: 
    altPositiveButton: 
    gravity: 0
    dead: .300000012
    sensitivity: 1
    snap: 0
    invert: 0
    type: 0
    axis: 1
    joyNum: 1
  - serializedVersion: 3
    m_Name: LS_2
    descriptiveName: 
    descriptiveNegativeName: 
    negativeButton: 
    positiveButton: joystick 2 button 8
    altNegativeButton: 
    altPositiveButton: 
    gravity: 0
    dead: .300000012
    sensitivity: 1
    snap: 0
    invert: 0
    type: 0
    axis: 1
    joyNum: 2
  - serializedVersion: 3
    m_Name: LS_3
    descriptiveName: 
    descriptiveNegativeName: 
    negativeButton: 
    positiveButton: joystick 3 button 8
    altNegativeButton: 
    altPositiveButton: 
    gravity: 0
    dead: .300000012
    sensitivity: 1
    snap: 0
    invert: 0
    type: 0
    axis: 1
    joyNum: 3
  - serializedVersion: 3
    m_Name: LS_4
    descriptiveName: 
    descriptiveNegativeName: 
    negativeButton: 
    positiveButton: joystick 4 button 8
    altNegativeButton: 
    altPositiveButton: 
    gravity: 0
    dead: .300000012
    sensitivity: 1
    snap: 0
    invert: 0
    type: 0
    axis: 1
    joyNum: 4
  - serializedVersion: 3
    m_Name: RS_1
    descriptiveName: 
    descriptiveNegativeName: 
    negativeButton: 
    positiveButton: joystick 1 button 9
    altNegativeButton: 
    altPositiveButton: 
    gravity: 0
    dead: .300000012
    sensitivity: 1
    snap: 0
    invert: 0
    type: 0
    axis: 1
    joyNum: 1
  - serializedVersion: 3
    m_Name: RS_2
    descriptiveName: 
    descriptiveNegativeName: 
    negativeButton: 
    positiveButton: joystick 2 button 9
    altNegativeButton: 
    altPositiveButton: 
    gravity: 0
    dead: .300000012
    sensitivity: 1
    snap: 0
    invert: 0
    type: 0
    axis: 1
    joyNum: 2
  - serializedVersion: 3
    m_Name: RS_3
    descriptiveName: 
    descriptiveNegativeName: 
    negativeButton: 
    positiveButton: joystick 3 button 9
    altNegativeButton: 
    altPositiveButton: 
    gravity: 0
    dead: .300000012
    sensitivity: 1
    snap: 0
    invert: 0
    type: 0
    axis: 1
    joyNum: 3
  - serializedVersion: 3
    m_Name: RS_4
    descriptiveName: 
    descriptiveNegativeName: 
    negativeButton: 
    positiveButton: joystick 4 button 9
    altNegativeButton: 
    altPositiveButton: 
    gravity: 0
    dead: .300000012
    sensitivity: 1
    snap: 0
    invert: 0
    type: 0
    axis: 1
    joyNum: 4
  - serializedVersion: 3
    m_Name: R_YAxis_1
    descriptiveName: 
    descriptiveNegativeName: 
    negativeButton: 
    positiveButton: 
    altNegativeButton: 
    altPositiveButton: 
    gravity: 0
    dead: .300000012
    sensitivity: 1
    snap: 0
    invert: 0
    type: 2
    axis: 4
    joyNum: 1
  - serializedVersion: 3
    m_Name: R_YAxis_2
    descriptiveName: 
    descriptiveNegativeName: 
    negativeButton: 
    positiveButton: 
    altNegativeButton: 
    altPositiveButton: 
    gravity: 0
    dead: .300000012
    sensitivity: 1
    snap: 0
    invert: 0
    type: 2
    axis: 4
    joyNum: 2
  - serializedVersion: 3
    m_Name: R_YAxis_3
    descriptiveName: 
    descriptiveNegativeName: 
    negativeButton: 
    positiveButton: 
    altNegativeButton: 
    altPositiveButton: 
    gravity: 0
    dead: .300000012
    sensitivity: 1
    snap: 0
    invert: 0
    type: 2
    axis: 4
    joyNum: 3
  - serializedVersion: 3
    m_Name: R_YAxis_4
    descriptiveName: 
    descriptiveNegativeName: 
    negativeButton: 
    positiveButton: 
    altNegativeButton: 
    altPositiveButton: 
    gravity: 0
    dead: .300000012
    sensitivity: 1
    snap: 0
    invert: 0
    type: 2
    axis: 4
    joyNum: 4
  - serializedVersion: 3
    m_Name: R_XAxis_1
    descriptiveName: 
    descriptiveNegativeName: 
    negativeButton: 
    positiveButton: 
    altNegativeButton: 
    altPositiveButton: 
    gravity: 0
    dead: .300000012
    sensitivity: 1
    snap: 0
    invert: 0
    type: 2
    axis: 3
    joyNum: 1
  - serializedVersion: 3
    m_Name: R_XAxis_2
    descriptiveName: 
    descriptiveNegativeName: 
    negativeButton: 
    positiveButton: 
    altNegativeButton: 
    altPositiveButton: 
    gravity: 0
    dead: .300000012
    sensitivity: 1
    snap: 0
    invert: 0
    type: 2
    axis: 3
    joyNum: 2
  - serializedVersion: 3
    m_Name: R_XAxis_3
    descriptiveName: 
    descriptiveNegativeName: 
    negativeButton: 
    positiveButton: 
    altNegativeButton: 
    altPositiveButton: 
    gravity: 0
    dead: .300000012
    sensitivity: 1
    snap: 0
    invert: 0
    type: 2
    axis: 3
    joyNum: 3
  - serializedVersion: 3
    m_Name: R_XAxis_4
    descriptiveName: 
    descriptiveNegativeName: 
    negativeButton: 
    positiveButton: 
    altNegativeButton: 
    altPositiveButton: 
    gravity: 0
    dead: .300000012
    sensitivity: 1
    snap: 0
    invert: 0
    type: 2
    axis: 3
    joyNum: 4
  - serializedVersion: 3
    m_Name: DPad_XAxis_1
    descriptiveName: 
    descriptiveNegativeName: 
    negativeButton: 
    positiveButton: 
    altNegativeButton: 
    altPositiveButton: 
    gravity: 0
    dead: .300000012
    sensitivity: 1
    snap: 0
    invert: 0
    type: 2
    axis: 5
    joyNum: 1
  - serializedVersion: 3
    m_Name: DPad_XAxis_2
    descriptiveName: 
    descriptiveNegativeName: 
    negativeButton: 
    positiveButton: 
    altNegativeButton: 
    altPositiveButton: 
    gravity: 0
    dead: .300000012
    sensitivity: 1
    snap: 0
    invert: 0
    type: 2
    axis: 5
    joyNum: 2
  - serializedVersion: 3
    m_Name: DPad_XAxis_3
    descriptiveName: 
    descriptiveNegativeName: 
    negativeButton: 
    positiveButton: 
    altNegativeButton: 
    altPositiveButton: 
    gravity: 0
    dead: .300000012
    sensitivity: 1
    snap: 0
    invert: 0
    type: 2
    axis: 5
    joyNum: 3
  - serializedVersion: 3
    m_Name: DPad_XAxis_4
    descriptiveName: 
    descriptiveNegativeName: 
    negativeButton: 
    positiveButton: 
    altNegativeButton: 
    altPositiveButton: 
    gravity: 0
    dead: .300000012
    sensitivity: 1
    snap: 0
    invert: 0
    type: 2
    axis: 5
    joyNum: 4
  - serializedVersion: 3
    m_Name: DPad_YAxis_1
    descriptiveName: 
    descriptiveNegativeName: 
    negativeButton: 
    positiveButton: 
    altNegativeButton: 
    altPositiveButton: 
    gravity: 0
    dead: .300000012
    sensitivity: 1
    snap: 0
    invert: 0
    type: 2
    axis: 6
    joyNum: 1
  - serializedVersion: 3
    m_Name: DPad_YAxis_2
    descriptiveName: 
    descriptiveNegativeName: 
    negativeButton: 
    positiveButton: 
    altNegativeButton: 
    altPositiveButton: 
    gravity: 0
    dead: .300000012
    sensitivity: 1
    snap: 0
    invert: 0
    type: 2
    axis: 6
    joyNum: 2
  - serializedVersion: 3
    m_Name: DPad_YAxis_3
    descriptiveName: 
    descriptiveNegativeName: 
    negativeButton: 
    positiveButton: 
    altNegativeButton: 
    altPositiveButton: 
    gravity: 0
    dead: .300000012
    sensitivity: 1
    snap: 0
    invert: 0
    type: 2
    axis: 6
    joyNum: 3
  - serializedVersion: 3
    m_Name: DPad_YAxis_4
    descriptiveName: 
    descriptiveNegativeName: 
    negativeButton: 
    positiveButton: 
    altNegativeButton: 
    altPositiveButton: 
    gravity: 0
    dead: .300000012
    sensitivity: 1
    snap: 0
    invert: 0
    type: 2
    axis: 6
    joyNum: 4
  - serializedVersion: 3
    m_Name: TriggersR_1
    descriptiveName: 
    descriptiveNegativeName: 
    negativeButton: 
    positiveButton: 
    altNegativeButton: 
    altPositiveButton: 
    gravity: 0
    dead: .300000012
    sensitivity: 1
    snap: 0
    invert: 0
    type: 2
    axis: 7
    joyNum: 1
  - serializedVersion: 3
    m_Name: TriggersR_2
    descriptiveName: 
    descriptiveNegativeName: 
    negativeButton: 
    positiveButton: 
    altNegativeButton: 
    altPositiveButton: 
    gravity: 0
    dead: .300000012
    sensitivity: 1
    snap: 0
    invert: 0
    type: 2
    axis: 9
    joyNum: 2
  - serializedVersion: 3
    m_Name: TriggersR_3
    descriptiveName: 
    descriptiveNegativeName: 
    negativeButton: 
    positiveButton: 
    altNegativeButton: 
    altPositiveButton: 
    gravity: 0
    dead: .300000012
    sensitivity: 1
    snap: 0
    invert: 0
    type: 2
    axis: 9
    joyNum: 3
  - serializedVersion: 3
    m_Name: TriggersR_4
    descriptiveName: 
    descriptiveNegativeName: 
    negativeButton: 
    positiveButton: 
    altNegativeButton: 
    altPositiveButton: 
    gravity: 0
    dead: .300000012
    sensitivity: 1
    snap: 0
    invert: 0
    type: 2
    axis: 9
    joyNum: 4
  - serializedVersion: 3
    m_Name: TriggersL_1
    descriptiveName: 
    descriptiveNegativeName: 
    negativeButton: 
    positiveButton: 
    altNegativeButton: 
    altPositiveButton: 
    gravity: 0
    dead: .300000012
    sensitivity: 1
    snap: 0
    invert: 0
    type: 2
    axis: 8
    joyNum: 1
  - serializedVersion: 3
    m_Name: TriggersL_2
    descriptiveName: 
    descriptiveNegativeName: 
    negativeButton: 
    positiveButton: 
    altNegativeButton: 
    altPositiveButton: 
    gravity: 0
    dead: .300000012
    sensitivity: 1
    snap: 0
    invert: 0
    type: 2
    axis: 8
    joyNum: 4
  - serializedVersion: 3
    m_Name: TriggersL_3
    descriptiveName: 
    descriptiveNegativeName: 
    negativeButton: 
    positiveButton: 
    altNegativeButton: 
    altPositiveButton: 
    gravity: 0
    dead: .300000012
    sensitivity: 1
    snap: 0
    invert: 0
    type: 2
    axis: 8
    joyNum: 4
  - serializedVersion: 3
    m_Name: TriggersL_4
    descriptiveName: 
    descriptiveNegativeName: 
    negativeButton: 
    positiveButton: 
    altNegativeButton: 
    altPositiveButton: 
    gravity: 0
    dead: .300000012
    sensitivity: 1
    snap: 0
    invert: 0
    type: 2
    axis: 8
    joyNum: 4
  - serializedVersion: 3
    m_Name: Submit
    descriptiveName: 
    descriptiveNegativeName: 
    negativeButton: 
    positiveButton: return
    altNegativeButton: 
    altPositiveButton: joystick button 0
    gravity: 1000
    dead: .00100000005
    sensitivity: 1000
    snap: 0
    invert: 0
    type: 0
    axis: 0
    joyNum: 0
  - serializedVersion: 3
    m_Name: Submit
    descriptiveName: 
    descriptiveNegativeName: 
    negativeButton: 
    positiveButton: enter
    altNegativeButton: 
    altPositiveButton: space
    gravity: 1000
    dead: .00100000005
    sensitivity: 1000
    snap: 0
    invert: 0
    type: 0
    axis: 0
    joyNum: 0
  - serializedVersion: 3
    m_Name: Cancel
    descriptiveName: 
    descriptiveNegativeName: 
    negativeButton: 
    positiveButton: escape
    altNegativeButton: 
    altPositiveButton: joystick button 1
    gravity: 1000
    dead: .00100000005
    sensitivity: 1000
    snap: 0
    invert: 0
    type: 0
    axis: 0
    joyNum: 0
  - serializedVersion: 3
    m_Name: Horizontal
    descriptiveName: 
    descriptiveNegativeName: 
    negativeButton: left
    positiveButton: right
    altNegativeButton: a
    altPositiveButton: d
    gravity: 3
    dead: .00100000005
    sensitivity: 3
    snap: 1
    invert: 0
    type: 0
    axis: 0
    joyNum: 1
  - serializedVersion: 3
    m_Name: Vertical
    descriptiveName: 
    descriptiveNegativeName: 
    negativeButton: down
    positiveButton: up
    altNegativeButton: s
    altPositiveButton: w
    gravity: 3
    dead: .00100000005
    sensitivity: 3
    snap: 1
    invert: 0
    type: 0
    axis: 1
    joyNum: 1
