%YAML 1.1
%TAG !u! tag:unity3d.com,2011:
--- !u!128 &12800000
Font:
  m_ObjectHideFlags: 0
  m_PrefabParentObject: {fileID: 0}
  m_PrefabInternal: {fileID: 0}
  m_Name: font_Round
  serializedVersion: 4
  m_AsciiStartOffset: 0
  m_Kerning: 1
  m_LineSpacing: 60
  m_CharacterSpacing: 1
  m_CharacterPadding: 0
  m_ConvertCase: 0
  m_DefaultMaterial: {fileID: 2100000, guid: e586eb64c6e66314584a3a402928aec6, type: 2}
  m_CharacterRects:
  - serializedVersion: 2
    index: 49
    uv:
      serializedVersion: 2
      x: .0078125
      y: .884765625
      width: .125
      height: .111328125
    vert:
      serializedVersion: 2
      x: 0
      y: -1
      width: 32
      height: -57
    width: 31
    flipped: 0
  - serializedVersion: 2
    index: 50
    uv:
      serializedVersion: 2
      x: .0078125
      y: .775390625
      width: .171875
      height: .10546875
    vert:
      serializedVersion: 2
      x: 0
      y: -2
      width: 44
      height: -54
    width: 42
    flipped: 0
  - serializedVersion: 2
    index: 51
    uv:
      serializedVersion: 2
      x: .140625
      y: .888671875
      width: .1640625
      height: .107421875
    vert:
      serializedVersion: 2
      x: 0
      y: -2
      width: 42
      height: -55
    width: 39
    flipped: 0
  - serializedVersion: 2
    index: 52
    uv:
      serializedVersion: 2
      x: .0078125
      y: .662109375
      width: .203125
      height: .109375
    vert:
      serializedVersion: 2
      x: 1
      y: -1
      width: 52
      height: -56
    width: 51
    flipped: 0
  - serializedVersion: 2
    index: 53
    uv:
      serializedVersion: 2
      x: .1875
      y: .775390625
      width: .171875
      height: .109375
    vert:
      serializedVersion: 2
      x: 0
      y: -1
      width: 44
      height: -56
    width: 42
    flipped: 0
  - serializedVersion: 2
    index: 54
    uv:
      serializedVersion: 2
      x: .0078125
      y: .546875
      width: .19921875
      height: .111328125
    vert:
      serializedVersion: 2
      x: 2
      y: -0
      width: 51
      height: -57
    width: 51
    flipped: 0
  - serializedVersion: 2
    index: 55
    uv:
      serializedVersion: 2
      x: .3125
      y: .888671875
      width: .1875
      height: .107421875
    vert:
      serializedVersion: 2
      x: 0
      y: -2
      width: 48
      height: -55
    width: 44
    flipped: 0
  - serializedVersion: 2
    index: 56
    uv:
      serializedVersion: 2
      x: .0078125
      y: .435546875
      width: .1953125
      height: .107421875
    vert:
      serializedVersion: 2
      x: 2
      y: -2
      width: 50
      height: -55
    width: 49
    flipped: 0
  - serializedVersion: 2
    index: 57
    uv:
      serializedVersion: 2
      x: .0078125
      y: .3203125
      width: .19921875
      height: .111328125
    vert:
      serializedVersion: 2
      x: 2
      y: -2
      width: 51
      height: -57
    width: 51
    flipped: 0
  - serializedVersion: 2
    index: 48
    uv:
      serializedVersion: 2
      x: .2109375
      y: .435546875
      width: .203125
      height: .107421875
    vert:
      serializedVersion: 2
      x: 2
      y: -2
      width: 52
      height: -55
    width: 51
    flipped: 0
  - serializedVersion: 2
    index: 32
    uv:
      serializedVersion: 2
      x: 0
      y: 1
      width: 0
      height: 0
    vert:
      serializedVersion: 2
      x: 2
      y: -2
      width: 0
      height: -0
    width: 26
    flipped: 0
  m_Texture: {fileID: 0}
  m_KerningValues: []
  m_PixelScale: .100000001
  m_FontData: 
  m_FontSize: 0
  m_Ascent: 0
  m_DefaultStyle: 0
  m_FontNames: []
  m_FallbackFonts: []
  m_FontRenderingMode: 0
